Some lab based task
…
library(tidyverse)
## temporary storage of data files until I can figure out how to get it to work with github pages
starwars2 <- read_csv("http://dynamicog.org/course_temp/starwars2.csv")

Reading data from a URL

Note that when you have a url for some data, such as http://dynamicog.org/course_temp/starwars2, you can read it in directly by giving functions like read_csv() the url inside quotation marks.

The data contains information on various characteristics of characters from Star Wars.
We can print out the top of the data by using the name we just gave it:

starwars2

## # A tibble: 75 × 6
##    name               height hair_color    eye_color homeworld species
##    <chr>               <dbl> <chr>         <chr>     <chr>     <chr>  
##  1 Luke Skywalker        172 blond         blue      Tatooine  Human  
##  2 C-3PO                 167 <NA>          yellow    Tatooine  Human  
##  3 R2-D2                  96 <NA>          red       Naboo     Droid  
##  4 Darth Vader           202 none          yellow    Tatooine  Human  
##  5 Leia Organa           150 brown         brown     Alderaan  Human  
##  6 Owen Lars             178 brown, grey   blue      Tatooine  Human  
##  7 Beru Whitesun lars    165 brown         blue      Tatooine  Human  
##  8 R5-D4                  97 <NA>          red       Tatooine  Droid  
##  9 Biggs Darklighter     183 black         brown     Tatooine  Human  
## 10 Obi-Wan Kenobi        182 auburn, white blue-gray Stewjon   Human  
## # … with 65 more rows
…
If we leave either rows or columns blank, then we will get out all of them:

# tenth row, all columns:
starwars2[10, ]

## # A tibble: 1 × 6
##   name           height hair_color    eye_color homeworld species
##   <chr>           <dbl> <chr>         <chr>     <chr>     <chr>  
## 1 Obi-Wan Kenobi    182 auburn, white blue-gray Stewjon   Human

# all rows, 2nd column:
starwars2[ , 2]

## # A tibble: 75 × 1
##    height
##     <dbl>
##  1    172
##  2    167
##  3     96
##  4    202
##  5    150
##  6    178
##  7    165
##  8     97
##  9    183
## 10    182
## # … with 65 more rows
…
Question 3

Read in the data from the link (http://dynamicog.org/course_temp/passworddata.csv).

You may notice that the url ends with .csv. This means we can use the read_csv() function to read it into R.

Be sure to assign it a name, otherwise it will just print it out, and not store it in R’s environment!

 Solution 

pwords <- read_csv("http://dynamicog.org/course_temp/passworddata.csv")
pwords

## # A tibble: 500 × 6
##     rank password type                cracked strength strength_cat
##    <dbl> <chr>    <chr>                 <dbl>    <dbl> <chr>       
##  1     1 password password-related       6.91        8 medium      
##  2     2 123456   simple-alphanumeric   18.5         4 weak        
##  3     3 12345678 simple-alphanumeric    1.29        4 weak        
##  4     4 1234     simple-alphanumeric   11.1         4 weak        
##  5     5 qwerty   simple-alphanumeric    3.72        8 medium      
##  6     6 12345    simple-alphanumeric    1.85        4 weak        
##  7     7 dragon   animal                 3.72        8 medium      
##  8     8 baseball sport                  6.91        4 weak        
##  9     9 football sport                  6.91        7 medium      
## 10    10 letmein  password-related       3.19        8 medium      
## # … with 490 more rows
